{
    "place_search": {
        "results": [{
            "name": "Central Park",
            "short_url": "http://dplr.it/explore/kj41",
            "place_id": "kj41",
            "green_blocks": 5,
            "kind": "explore",
            "vote": "unvisited",
            "tags": ["NYC", "park", "walk"],
            "url": "http://www.centralparknyc.org/",
            "dopplr_url": "http://www.dopplr.com/place/us/ny/new-york/explore/central-park-2",
            "lng": -73.96640014648438,
            "links": {
                "lonelyplanet": "http://www.lonelyplanet.com/poiRedirector?poiId=381791"
            },
            "phone": "212 360 3444",
            "address": "Central Park",
            "geohash": "dr72hb5q9y",
            "lat": 40.78239822387695,
            "distance": 123.525094718877
        },
        {
            "name": "MoMA",
            "short_url": "http://dplr.it/explore/hj41",
            "place_id": "hj41",
            "green_blocks": 5,
            "kind": "explore",
            "vote": "unvisited",
            "tags": ["Gallery", "NYC", "museum"],
            "url": "http://www.moma.org/",
            "dopplr_url": "http://www.dopplr.com/place/us/ny/new-york/explore/moma",
            "lng": -73.97650146484375,
            "phone": "",
            "address": "11 West 53 Street",
            "geohash": "dr5rus7bq9",
            "lat": 40.76070022583008,
            "distance": 121.230613932458
        },
        {
            "name": "The Empire State Building",
            "short_url": "http://dplr.it/explore/mj41",
            "place_id": "mj41",
            "green_blocks": 5,
            "kind": "explore",
            "vote": "unvisited",
            "tags": ["NYC", "sightseeing"],
            "url": "http://www.esbnyc.com/",
            "dopplr_url": "http://www.dopplr.com/place/us/ny/new-york/explore/the-empire-state-building",
            "lng": -73.9845962524414,
            "links": {
                "lonelyplanet": "http://www.lonelyplanet.com/poiRedirector?poiId=381787"
            },
            "phone": "212 736 3100",
            "address": "350 Fifth Ave and 34th St",
            "geohash": "dr5ru6n09u",
            "lat": 40.7484016418457,
            "distance": 119.790267766413
        },
        {
            "name": "Metropolitan Museum of Art",
            "short_url": "http://dplr.it/explore/gj41",
            "place_id": "gj41",
            "green_blocks": 5,
            "kind": "explore",
            "vote": "unvisited",
            "tags": ["Gallery", "NYC", "museum"],
            "url": "http://www.metmuseum.org/",
            "dopplr_url": "http://www.dopplr.com/place/us/ny/new-york/explore/metropolitan-museum-of-art",
            "lng": -73.96230316162109,
            "links": {
                "lonelyplanet": "http://www.lonelyplanet.com/poiRedirector?poiId=381807"
            },
            "phone": "212-879-5500",
            "address": "82nd St. and Fifth Avenue",
            "geohash": "dr5ruzw633",
            "lat": 40.77890014648438,
            "distance": 123.499698392702
        },
        {
            "name": "Brooklyn Bridge",
            "short_url": "http://dplr.it/explore/lj41",
            "place_id": "lj41",
            "green_blocks": 5,
            "kind": "explore",
            "vote": "unvisited",
            "tags": ["NYC", "sightseeing", "walk"],
            "url": "",
            "dopplr_url": "http://www.dopplr.com/place/us/ny/new-york/explore/brooklyn-bridge",
            "lng": -73.99680328369141,
            "links": {
                "lonelyplanet": "http://www.lonelyplanet.com/poiRedirector?poiId=381883"
            },
            "phone": "212 484 1200",
            "address": "Brooklyn Bridge, NY,",
            "geohash": "dr5rs4m0mw",
            "lat": 40.7057991027832,
            "distance": 115.800660436166
        },
        {
            "name": "World Trade Center Site",
            "short_url": "http://dplr.it/explore/sj41",
            "place_id": "sj41",
            "green_blocks": 5,
            "kind": "explore",
            "vote": "unvisited",
            "tags": ["NYC", "monument", "sightseeing"],
            "url": "",
            "dopplr_url": "http://www.dopplr.com/place/us/ny/new-york/explore/world-trade-center-site",
            "lng": -74.01249694824219,
            "links": {
                "lonelyplanet": "http://www.lonelyplanet.com/poiRedirector?poiId=382039"
            },
            "phone": null,
            "address": "NY 10048",
            "geohash": "dr5reg3drb",
            "lat": 40.71160125732422,
            "distance": 115.266335670402
        },
        {
            "name": "Union Square Park",
            "short_url": "http://dplr.it/explore/rj41",
            "place_id": "rj41",
            "green_blocks": 5,
            "kind": "explore",
            "vote": "unvisited",
            "tags": ["NYC", "park", "sightseeing"],
            "url": "",
            "dopplr_url": "http://www.dopplr.com/place/us/ny/new-york/explore/union-square-park",
            "lng": -73.99050140380859,
            "phone": "",
            "address": "100-172 Union Square E, NY 10003",
            "geohash": "dr5rsr9v2r",
            "lat": 40.73550033569336,
            "distance": 118.439988166783
        },
        {
            "name": "Shake Shack",
            "short_url": "http://dplr.it/eat/vv01",
            "place_id": "vv01",
            "green_blocks": 5,
            "kind": "eat",
            "vote": "unvisited",
            "tags": [],
            "url": "http://www.shakeshack.com/",
            "dopplr_url": "http://www.dopplr.com/place/us/ny/new-york/eat/shake-shack-2",
            "lng": -73.988049,
            "links": {
                "zagat_mobile": "http://zagat.mobi/inf/infomo?site=zg&view=103866&buzz=1&vid=8&item=97539&loc=GeoType%3DGeo4ID",
                "zagat": "http://www.zagat.com/Verticals/PropertyDetails.aspx?VID=8&R=97539&pid=215"
            },
            "phone": "+1 212-889-6600",
            "address": "23rd St., Flatiron District",
            "geohash": "dr5ru2escs",
            "lat": 40.74089,
            "distance": 119.002710864667
        },
        {
            "name": "Guggenheim Museum",
            "short_url": "http://dplr.it/explore/ij41",
            "place_id": "ij41",
            "green_blocks": 5,
            "kind": "explore",
            "vote": "unvisited",
            "tags": ["Gallery", "NYC", "museum"],
            "url": "",
            "dopplr_url": "http://www.dopplr.com/place/us/ny/new-york/explore/guggenheim-museum",
            "lng": -73.95919799804688,
            "phone": "212-423-3500",
            "address": "1071 Fifth Avenue",
            "geohash": "dr72j02dcb",
            "lat": 40.78310012817383,
            "distance": 124.013394369646
        },
        {
            "name": "Statue of Liberty",
            "short_url": "http://dplr.it/explore/nj41",
            "place_id": "nj41",
            "green_blocks": 4,
            "kind": "explore",
            "vote": "unvisited",
            "tags": ["NYC", "monument", "sightseeing"],
            "url": "http://www.nps.gov/stli",
            "dopplr_url": "http://www.dopplr.com/place/us/ny/new-york/explore/statue-of-liberty",
            "lng": -74.04489898681641,
            "links": {
                "lonelyplanet": "http://www.lonelyplanet.com/poiRedirector?poiId=381781"
            },
            "phone": "212 269 5755",
            "address": "Bowling Green, NY 10004",
            "geohash": "dr5r7p6jhb",
            "lat": 40.69010162353516,
            "distance": 111.635198893861
        },
        {
            "name": "Grand Central Terminal",
            "short_url": "http://dplr.it/explore/kd71",
            "place_id": "kd71",
            "green_blocks": 4,
            "kind": "explore",
            "vote": "unvisited",
            "tags": [],
            "url": "http://www.grandcentralterminal.com/",
            "dopplr_url": "http://www.dopplr.com/place/us/ny/new-york/explore/grand-central-terminal",
            "lng": -73.9770412445068,
            "links": {
                "lonelyplanet": "http://www.lonelyplanet.com/poiRedirector?poiId=382089"
            },
            "phone": null,
            "address": "42nd St at Park Ave, Midtown, 10017",
            "geohash": "dr5rudge45",
            "lat": 40.7529464074634,
            "distance": 120.600240112225
        },
        {
            "name": "Madison Square Park",
            "short_url": "http://dplr.it/explore/oj41",
            "place_id": "oj41",
            "green_blocks": 4,
            "kind": "explore",
            "vote": "unvisited",
            "tags": ["NYC", "park", "sightseeing", "walk"],
            "url": "",
            "dopplr_url": "http://www.dopplr.com/place/us/ny/new-york/explore/madison-square-park",
            "lng": -73.98799896240234,
            "phone": "",
            "address": "8-24 Madison Ave, NY 10010",
            "geohash": "dr5ru2gsd8",
            "lat": 40.7421989440918,
            "distance": 119.106151107113
        },
        {
            "name": "New York Public Library",
            "short_url": "http://dplr.it/explore/ej41",
            "place_id": "ej41",
            "green_blocks": 4,
            "kind": "explore",
            "vote": "unvisited",
            "tags": ["New", "library", "museum", "york"],
            "url": "http://www.nypl.org/",
            "dopplr_url": "http://www.dopplr.com/place/us/ny/new-york/explore/new-york-public-library",
            "lng": -73.99500274658203,
            "links": {
                "lonelyplanet": "http://www.lonelyplanet.com/poiRedirector?poiId=382117"
            },
            "phone": "212-340-0849",
            "address": "42 Fifth Avenue",
            "geohash": "dr5rspqmr6",
            "lat": 40.73410034179688,
            "distance": 118.057188364724
        },
        {
            "name": "Times Square",
            "short_url": "http://dplr.it/explore/0881",
            "place_id": "0881",
            "green_blocks": 4,
            "kind": "explore",
            "vote": "unvisited",
            "tags": [],
            "url": "http://www.timessquare.com/",
            "dopplr_url": "http://www.dopplr.com/place/us/ny/new-york/explore/times-square",
            "lng": -73.9856028556824,
            "phone": "+12129663141",
            "address": "Times Square",
            "geohash": "dr5ru7trfr",
            "lat": 40.7579039551473,
            "distance": 120.462711170388
        },
        {
            "name": "Balthazar",
            "short_url": "http://dplr.it/eat/iuy0",
            "place_id": "iuy0",
            "green_blocks": 5,
            "kind": "eat",
            "vote": "unvisited",
            "tags": [],
            "url": "http://www.balthazarny.com/",
            "dopplr_url": "http://www.dopplr.com/place/us/ny/new-york/eat/balthazar-3",
            "lng": -73.998227,
            "links": {
                "zagat_mobile": "http://zagat.mobi/inf/infomo?site=zg&view=103866&buzz=1&vid=8&item=50698&loc=GeoType%3DGeo4ID",
                "zagat": "http://www.zagat.com/Verticals/PropertyDetails.aspx?VID=8&R=50698&pid=215"
            },
            "phone": "+1 212-965-1414",
            "address": "80 Spring St., SoHo",
            "geohash": "dr5rsjk5h2",
            "lat": 40.722716,
            "distance": 116.990482724763
        },
        {
            "name": "Pastis",
            "short_url": "http://dplr.it/eat/chi0",
            "place_id": "chi0",
            "green_blocks": 5,
            "kind": "eat",
            "vote": "unvisited",
            "tags": [],
            "url": "http://www.pastisny.com/",
            "dopplr_url": "http://www.dopplr.com/place/us/ny/new-york/eat/pastis-2",
            "lng": -74.0062,
            "links": {
                "zagat_mobile": "http://zagat.mobi/inf/infomo?site=zg&view=103866&buzz=1&vid=8&item=51670&loc=GeoType%3DGeo4ID",
                "zagat": "http://www.zagat.com/Verticals/PropertyDetails.aspx?VID=8&R=51670&pid=215"
            },
            "phone": "+1 212-929-4844",
            "address": "9 Ninth Ave., Meatpacking District",
            "geohash": "dr5rgbqqd8",
            "lat": 40.739799,
            "distance": 117.813458573064
        },
        {
            "name": "Museum of Natural History",
            "short_url": "http://dplr.it/explore/fj41",
            "place_id": "fj41",
            "green_blocks": 4,
            "kind": "explore",
            "vote": "unvisited",
            "tags": ["NYC", "museum"],
            "url": "http://www.amnh.org/",
            "dopplr_url": "http://www.dopplr.com/place/us/ny/new-york/explore/museum-of-natural-history",
            "lng": -73.97409820556641,
            "phone": "212-769-5100",
            "address": "200 Central Park West, NY 10024",
            "geohash": "dr5ruxvsy9",
            "lat": 40.78070068359375,
            "distance": 122.93031767874
        },
        {
            "name": "Lombardi's",
            "short_url": "http://dplr.it/eat/5il0",
            "place_id": "5il0",
            "green_blocks": 5,
            "kind": "eat",
            "vote": "unvisited",
            "tags": [],
            "url": "http://www.firstpizza.com/",
            "dopplr_url": "http://www.dopplr.com/place/us/ny/new-york/eat/lombardis",
            "lng": -73.995593,
            "links": {
                "zagat_mobile": "http://zagat.mobi/inf/infomo?site=zg&view=103866&buzz=1&vid=8&item=51458&loc=GeoType%3DGeo4ID",
                "zagat": "http://www.zagat.com/Verticals/PropertyDetails.aspx?VID=8&R=51458&pid=215"
            },
            "phone": "+1 212-941-7994",
            "address": "32 Spring St., NoLita",
            "geohash": "dr5rsjnhcw",
            "lat": 40.721678,
            "distance": 117.073974811957
        },
        {
            "name": "New York Stock Exchange",
            "short_url": "http://dplr.it/explore/pj41",
            "place_id": "pj41",
            "green_blocks": 4,
            "kind": "explore",
            "vote": "unvisited",
            "tags": ["NYC", "sightseeing"],
            "url": "http://www.nyse.com/",
            "dopplr_url": "http://www.dopplr.com/place/us/ny/new-york/explore/new-york-stock-exchange",
            "lng": -74.01090240478516,
            "links": {
                "lonelyplanet": "http://www.lonelyplanet.com/poiRedirector?poiId=382033"
            },
            "phone": "212 656 5168",
            "address": "8 Broad St",
            "geohash": "dr5ref6vsy",
            "lat": 40.70669937133789,
            "distance": 114.993026478281
        },
        {
            "name": "Katz's Delicatessen",
            "short_url": "http://dplr.it/eat/psw0",
            "place_id": "psw0",
            "green_blocks": 5,
            "kind": "eat",
            "vote": "unvisited",
            "tags": [],
            "url": "http://www.katzdeli.com/",
            "dopplr_url": "http://www.dopplr.com/place/us/ny/new-york/eat/katzs-delicatessen",
            "lng": -73.9871,
            "links": {
                "zagat_mobile": "http://zagat.mobi/inf/infomo?site=zg&view=103866&buzz=1&vid=8&item=51248&loc=GeoType%3DGeo4ID",
                "zagat": "http://www.zagat.com/Verticals/PropertyDetails.aspx?VID=8&R=51248&pid=215"
            },
            "phone": "+1 212-254-2246",
            "address": "205 E. Houston St., Lower East Side",
            "geohash": "dr5rsmk1pt",
            "lat": 40.722402,
            "distance": 117.653718653237
        }],
        "total": 11179,
        "per_page": 20,
        "pages": 559,
        "page": 1
    }
}